{
  "project_info": {
    "project_number": "201755256317",
    "firebase_url": "https://yobro-4094d.firebaseio.com",
    "project_id": "yobro-4094d",
    "storage_bucket": "yobro-4094d.appspot.com"
  },
  "client": [
    {
      "client_info": {
        "mobilesdk_app_id": "1:201755256317:android:383bff7f5665b1bd",
        "android_client_info": {
          "package_name": "YoBro.Droid.YoBro.Droid"
        }
      },
      "oauth_client": [
        {
          "client_id": "201755256317-qnna1g72r69c30i4gt5h7ojtuam4k6fp.apps.googleusercontent.com",
          "client_type": 3
        }
      ],
      "api_key": [
        {
          "current_key": "AIzaSyCCCNdxmTKYCq76w7AsUAX3WGpLQ1sMz0o"
        }
      ],
      "services": {
        "appinvite_service": {
          "other_platform_oauth_client": [
            {
              "client_id": "201755256317-qnna1g72r69c30i4gt5h7ojtuam4k6fp.apps.googleusercontent.com",
              "client_type": 3
            }
          ]
        }
      }
    }
  ],
  "configuration_version": "1"
}